0.000000 0.000000000 0.000000000 0.000000000 0.000000000 0.000000000 0.000000000 1.000000000
0.000000 -0.000000000 -0.000000000 0.000000000 -0.000000000 0.000000001 -0.000000000 1.000000000
1.000000 -0.000000000 -0.000000000 0.000000000 -0.000000000 0.000000001 -0.000000000 1.000000000
1.066667 0.000000431 -0.000000837 -0.000002495 -0.000777512 0.000171576 -0.001095041 0.999999106
1.133333 0.000001718 -0.000003469 0.000014157 -0.001945759 -0.000311915 -0.000121317 0.999998033
1.200000 -0.000002841 -0.000002181 -0.000007037 -0.002215755 -0.001953237 0.000144983 0.999995649
1.266667 -0.000152686 0.000020632 0.000008539 -0.002378696 -0.002489406 0.000057820 0.999994040
1.333333 -0.000049437 -0.000027553 -0.000073725 -0.002925008 -0.003174329 0.000868156 0.999990284
1.400000 -0.000049074 -0.000016017 -0.000084522 -0.004295950 -0.004193842 0.001634223 0.999980628
1.466667 -0.000019809 -0.000135935 -0.000204888 -0.007387911 -0.006757756 0.004849680 0.999938130
1.533333 0.000035797 -0.000111806 0.000042558 -0.010545863 -0.011245925 0.008264891 0.999846995
1.600000 -0.000051209 -0.000128907 -0.000127640 -0.012396513 -0.015336122 0.010332914 0.999752104
1.666667 -0.000049906 -0.000026626 -0.000132883 -0.013207342 -0.017705524 0.011234960 0.999692857
1.733333 -0.000027517 -0.000024210 -0.000170613 -0.014579083 -0.019990982 0.012135918 0.999620199
1.800000 -0.000099451 -0.000016763 -0.000307879 -0.016369201 -0.022262508 0.013602323 0.999525547
1.866667 0.000035888 -0.000073065 -0.000303351 -0.018277140 -0.026670421 0.016233478 0.999345362
1.933333 0.000182344 -0.000181750 -0.000367077 -0.020789161 -0.031868286 0.018927449 0.999096572
2.000000 0.000209377 -0.000197403 -0.000403588 -0.022455208 -0.035228834 0.020626489 0.998914003
2.066667 0.000114385 -0.000175257 -0.000448706 -0.024444409 -0.041608736 0.025052005 0.998520672
2.133333 0.000085833 -0.000164272 -0.000573413 -0.025854606 -0.048409633 0.027701044 0.998108566
2.200000 0.000159032 -0.000195367 -0.000552495 -0.027636535 -0.054996088 0.029589020 0.997665346
2.266667 0.000079156 -0.000160354 -0.000851267 -0.029789340 -0.058670968 0.032702405 0.997296751
2.333333 0.000080411 -0.000139505 -0.000776786 -0.031704020 -0.061682705 0.035474565 0.996961236
2.400000 0.000141953 -0.000156430 -0.000700784 -0.033139054 -0.063690290 0.036074467 0.996766746
2.466667 0.000215695 -0.000174989 -0.000729481 -0.034118820 -0.066507429 0.038177278 0.996471345
2.533333 0.000000067 -0.000056577 -0.000849751 -0.033633135 -0.067982510 0.040531512 0.996295333
2.600000 0.000120609 -0.000090131 -0.001051072 -0.034323137 -0.071285911 0.043197978 0.995928824
2.666667 -0.000038976 -0.000063742 -0.000814036 -0.034334403 -0.073182821 0.045129027 0.995705187
2.733333 -0.000030025 -0.000169050 -0.000834638 -0.034562107 -0.074988335 0.046940733 0.995479167
2.800000 -0.000019719 -0.000171545 -0.000860707 -0.035244126 -0.076607279 0.048750125 0.995244980
2.866667 0.000002734 -0.000169082 -0.000912127 -0.035747875 -0.077813253 0.050675381 0.995037258
2.933333 -0.000016002 -0.000171684 -0.000872212 -0.036611844 -0.078972362 0.054361299 0.994719982
3.000000 0.000035674 -0.000198014 -0.001026700 -0.036846016 -0.080363601 0.056031536 0.994507194
3.066667 0.000068978 -0.000211743 -0.001095312 -0.037759170 -0.080188192 0.056752220 0.994446218
3.133333 -0.000028859 -0.000166079 -0.000843627 -0.037486330 -0.080575421 0.059517719 0.994263530
3.200000 -0.000112698 -0.000075544 -0.000898186 -0.036761194 -0.081741445 0.063470080 0.993950963
3.266667 -0.000110251 -0.000077079 -0.000907195 -0.037154872 -0.083474636 0.066502020 0.993593931
3.333333 -0.000119550 -0.000074132 -0.000878300 -0.037442505 -0.084287718 0.068964891 0.993346632
3.400000 -0.000102396 -0.000076537 -0.000837555 -0.037425745 -0.085629009 0.072723143 0.992964387
3.466667 -0.000243657 -0.000048112 -0.000914186 -0.036793221 -0.085608892 0.075535119 0.992779851
3.533333 -0.000169992 -0.000100531 -0.000734649 -0.035277497 -0.084297985 0.077140138 0.992823601
3.600000 -0.000175296 -0.000140147 -0.000778887 -0.033097200 -0.082318291 0.082864217 0.992603540
3.666667 -0.000111094 -0.000181656 -0.000821467 -0.030829895 -0.082673006 0.088477604 0.992162466
3.733333 -0.000157643 -0.000061044 -0.000851275 -0.024749769 -0.089020573 0.100032859 0.990684688
3.800000 0.000277448 0.000053252 -0.001068081 -0.023969959 -0.093805864 0.107106194 0.989522159
3.866667 0.000086527 0.000030169 -0.000907178 -0.022669591 -0.099314801 0.113877632 0.988258302
3.933333 0.000163909 0.000071428 -0.000721218 -0.020107122 -0.105155334 0.119489782 0.987046182
4.000000 0.000154053 0.000093358 -0.001120053 -0.015924007 -0.105913959 0.121079028 0.986847758
4.066667 0.000008302 0.000022669 -0.001183950 -0.013489706 -0.099999167 0.126096621 0.986872733
4.133333 0.000048778 0.000016062 -0.001242374 -0.012846177 -0.101236962 0.134262487 0.985677242
4.200000 0.000099878 0.000031558 -0.001259628 -0.013200784 -0.115471758 0.150397167 0.981770158
4.266667 0.000289604 0.000073578 -0.001499443 -0.012528287 -0.124797359 0.158165053 0.979414344
4.333333 0.000297587 0.000076301 -0.001555284 -0.011499341 -0.133810371 0.163372084 0.977380216
4.400000 0.000426015 0.000181049 -0.001627614 -0.007729052 -0.142425328 0.165650949 0.975815058
4.466667 0.000390464 0.000173322 -0.001700287 -0.003245200 -0.150876120 0.167091414 0.974323511
4.533333 0.000672004 0.000213941 -0.001941686 0.002695306 -0.163046598 0.168178633 0.972175121
4.600000 0.000752121 0.000247494 -0.002011643 0.007489441 -0.175019622 0.172759518 0.969260633
4.666667 0.000835993 0.000134151 -0.002730225 0.015436651 -0.180288091 0.174716756 0.967849135
4.733333 0.000991578 0.000253129 -0.003258921 0.020460995 -0.185355753 0.179772303 0.965870857
4.800000 0.001124889 0.000256873 -0.003461903 0.025540214 -0.190660849 0.182842538 0.964139342
4.866667 0.002035042 0.000596863 -0.004790875 0.030271346 -0.200969696 0.189306512 0.960654914
4.933333 0.001967491 0.000662762 -0.004880503 0.034801494 -0.210887715 0.192917496 0.957652390
5.000000 0.002093604 0.000707719 -0.005092410 0.038490579 -0.220958665 0.193275064 0.955165148
5.066667 0.002176498 0.000733638 -0.005113170 0.040115032 -0.231588423 0.193112701 0.952609599
5.133333 0.002326742 0.000657562 -0.005677211 0.039774589 -0.241275936 0.188844010 0.951074064
5.200000 0.002647867 0.000581240 -0.005896119 0.036044739 -0.252177954 0.185467049 0.949056923
5.266667 0.003048780 0.000541400 -0.005998767 0.029580122 -0.263611138 0.174183235 0.948311329
5.333333 0.002887392 0.000515156 -0.005749269 0.016295549 -0.272791505 0.159695596 0.948586643
5.400000 0.002887766 0.000164334 -0.005612398 0.008513580 -0.281019628 0.139716148 0.949439228
5.466667 0.002858867 0.000087404 -0.005447151 0.006488056 -0.285015225 0.133653864 0.949136913
5.533333 0.002936899 0.000079333 -0.005555673 0.005162979 -0.286513507 0.129939541 0.949209690
5.600000 0.002758885 0.000063421 -0.005483538 0.002413159 -0.287379891 0.128267929 0.949186146
5.666667 0.002756219 0.000054841 -0.005485205 0.001427603 -0.288622439 0.129470825 0.948647618
5.733333 0.002955407 0.000130102 -0.005793570 -0.000331321 -0.291910350 0.129986495 0.947571516
5.800000 0.002896365 0.000106809 -0.005746083 -0.001980279 -0.295891196 0.130688727 0.946237266
5.866667 0.002928305 0.000133219 -0.005739292 -0.003387586 -0.301302075 0.132323757 0.944296539
5.933333 0.002892712 0.000067756 -0.005659541 -0.002553027 -0.305363119 0.131669343 0.943085313
6.000000 0.002876912 0.000175670 -0.005819594 -0.001255176 -0.309483141 0.131136432 0.941818357
6.066667 0.002985757 0.000134134 -0.005783930 -0.001646469 -0.314637601 0.128544241 0.940466285
6.133333 0.003076172 0.000141511 -0.005805510 -0.002193369 -0.318601489 0.125332147 0.939563811
6.200000 0.003115249 0.000140757 -0.005900498 -0.002358271 -0.321540445 0.122403771 0.938948095
6.266667 0.003091282 0.000141092 -0.005704826 -0.002729699 -0.325694114 0.120919727 0.937706947
6.333333 0.003071626 0.000115125 -0.005743940 -0.002660742 -0.328836501 0.120772421 0.936628759
6.400000 0.003114709 0.000141657 -0.005745322 -0.001545534 -0.330296963 0.118986689 0.936345935
6.466667 0.003069191 0.000127156 -0.005590317 -0.001145156 -0.331937939 0.118893750 0.935777843
6.533333 0.003074194 0.000120168 -0.005618311 -0.000389854 -0.334645450 0.119857579 0.934690535
6.600000 0.003350371 0.000160389 -0.006104532 -0.000602289 -0.338230610 0.123372562 0.932941020
6.666667 0.003250086 0.000211756 -0.005954646 -0.000833639 -0.343362451 0.124849126 0.930867493
6.733333 0.003215104 0.000195672 -0.005867082 -0.001099895 -0.348160923 0.126168311 0.928904891
6.800000 0.003176559 0.000198859 -0.005832480 -0.000877525 -0.355375051 0.128691390 0.925821960
6.866667 0.003207656 0.000149212 -0.005862334 -0.000244178 -0.363676041 0.132508650 0.922052681
6.933333 0.003354670 0.000171359 -0.005901851 0.001310722 -0.370736450 0.135475621 0.918803096
7.000000 0.003423467 0.000094968 -0.006267911 0.001545463 -0.378030837 0.140280262 0.915102005
7.066667 0.003425963 0.000068880 -0.006178211 0.004572586 -0.384319931 0.140135303 0.912490726
7.133333 0.003498929 0.000071238 -0.006280848 0.007525688 -0.390031397 0.138541907 0.910288393
7.200000 0.003693591 0.000103631 -0.006477363 0.009160003 -0.394634664 0.138392121 0.908310056
7.266667 0.003585350 0.000029450 -0.006400374 0.009252254 -0.401024669 0.138826996 0.905439496
7.333333 0.003544119 0.000097525 -0.006420863 0.012078499 -0.405726165 0.135804147 0.903768539
7.400000 0.003570497 0.000123326 -0.006435559 0.012531420 -0.410006374 0.136088625 0.901785791
7.466667 0.003588525 0.000204521 -0.006507202 0.013877478 -0.411742687 0.134932905 0.901148379
7.533333 0.003568916 0.000146723 -0.006429191 0.013876834 -0.414276540 0.134021059 0.900122643
7.600000 0.003708210 0.000160614 -0.006522859 0.013259818 -0.418311268 0.134163305 0.898242772
7.666667 0.003653099 0.000120880 -0.006423794 0.013291312 -0.422231317 0.130323812 0.896972537
7.733333 0.003527499 0.000046822 -0.006225978 0.014754654 -0.423747569 0.127103180 0.896696806
7.800000 0.003598262 0.000102858 -0.006397650 0.016879559 -0.422785908 0.124571666 0.897468150
7.866667 0.003654818 0.000119520 -0.006203503 0.017984835 -0.420451373 0.123107232 0.898744583
7.933333 0.003759370 0.000230240 -0.006147365 0.018515706 -0.415234834 0.121815257 0.901331365
8.000000 0.003559865 0.000188816 -0.005906388 0.018488450 -0.409961998 0.121328205 0.903807938
8.066667 0.003332103 0.000297307 -0.005838238 0.019814724 -0.401840657 0.119477414 0.907665491
8.133333 0.003098176 0.000438473 -0.005850509 0.024458153 -0.387772620 0.119554043 0.913641632
8.200000 0.003361862 0.000362794 -0.005885395 0.028770288 -0.369422823 0.115488708 0.921608031
8.266667 0.003532206 0.000306165 -0.006255742 0.023982234 -0.357038409 0.122031763 0.925773561
8.333333 0.003625462 0.000281626 -0.005932859 0.022446245 -0.348274171 0.126195520 0.928588152
8.400000 0.003530070 0.000053621 -0.006075447 0.021833509 -0.337970883 0.125911877 0.932440460
8.466667 0.003849810 0.000220131 -0.005919339 0.023030318 -0.334431142 0.127116337 0.933523893
8.533333 0.003796137 0.000232279 -0.005787321 0.028876252 -0.322843999 0.121949352 0.938118458
8.600000 0.003486140 0.000180986 -0.006037581 0.031961244 -0.307876885 0.118440278 0.943484128
8.666667 0.003217097 0.000064063 -0.005754004 0.032615617 -0.295164585 0.118758127 0.947475910
8.733333 0.003249818 0.000076740 -0.005665958 0.033605825 -0.285280764 0.116249524 0.950774193
8.800000 0.003146438 0.000131678 -0.005496895 0.036167324 -0.275667518 0.115303732 0.953626990
8.866667 0.003353997 0.000139279 -0.005541400 0.037336484 -0.267165661 0.119093589 0.955533981
8.933333 0.003346866 0.000115557 -0.005565861 0.038840402 -0.258777171 0.116910107 0.958048940
9.000000 0.003368614 0.000101939 -0.005371457 0.041627966 -0.251335800 0.114093110 0.960250080
9.066667 0.003295821 0.000203670 -0.005334686 0.048190050 -0.241774783 0.107547887 0.963149071
9.133333 0.003524078 0.000227524 -0.005871036 0.054717273 -0.232547343 0.095978864 0.966289699
9.200000 0.003551304 0.000245946 -0.006018875 0.058923353 -0.223801941 0.083131678 0.969293475
9.266667 0.003467479 0.000245667 -0.005795108 0.061966810 -0.212738261 0.074386455 0.972301006
9.333333 0.003509065 0.000296884 -0.006150468 0.064746298 -0.201358527 0.064703144 0.975231349
9.400000 0.003440803 0.000227320 -0.005999030 0.065170370 -0.192090631 0.057281636 0.977534056
9.466667 0.003363493 0.000205442 -0.006061004 0.064379305 -0.182713658 0.050279804 0.979766786
9.533333 0.003263289 0.000031709 -0.005259666 0.064180762 -0.173467323 0.047780786 0.981583893
9.600000 0.003400611 0.000244350 -0.006170519 0.066748269 -0.157127544 0.038433407 0.984570205
9.666667 0.003344988 0.000450188 -0.005937704 0.062933594 -0.145633236 0.034828093 0.986720502
9.733333 0.002761782 0.000123326 -0.005265920 0.061499979 -0.130553514 0.028404782 0.989124238
9.800000 0.002592927 0.000189844 -0.005066701 0.067159414 -0.120399959 0.016902227 0.990306914
9.866667 0.002667198 0.000208048 -0.004823789 0.078606285 -0.112754188 -0.000131434 0.990508676
9.933333 0.002715459 0.000319256 -0.005130228 0.089876853 -0.105848327 -0.018998342 0.990129948
10.000000 0.002734904 0.000366227 -0.005159523 0.097541869 -0.102408051 -0.035091572 0.989326417
10.066667 0.002710609 0.000286162 -0.005132798 0.101937249 -0.100139059 -0.047437333 0.988600373
10.133333 0.002718357 0.000339388 -0.004647484 0.108360283 -0.100021929 -0.060356300 0.987223804
10.200000 0.002561364 0.000077717 -0.005280396 0.111425132 -0.099534325 -0.068291344 0.986414552
10.266667 0.002446954 -0.000181901 -0.005804949 0.103658833 -0.097902872 -0.075737365 0.986880779
10.333333 0.002651295 -0.000065957 -0.005907558 0.093595773 -0.095634490 -0.089107364 0.986992240
10.400000 0.003145928 -0.000509685 -0.007830911 0.071634740 -0.097716086 -0.098296404 0.987753928
10.466667 0.003543529 0.000056970 -0.008405076 0.048107672 -0.097721845 -0.099943548 0.989013314
10.533333 0.003808968 -0.000053768 -0.008417739 0.025266618 -0.102036856 -0.099294350 0.989490151
10.600000 0.003827859 -0.000092047 -0.008252639 0.012115424 -0.102978870 -0.110604636 0.988440752
10.666667 0.003822281 -0.000101258 -0.008311625 0.004745959 -0.108580656 -0.119379118 0.986882150
10.733333 0.003805240 -0.000107479 -0.008326157 -0.002697625 -0.113371745 -0.125893548 0.985540628
10.800000 0.004026609 -0.000071533 -0.008879528 -0.008107641 -0.115311533 -0.133038864 0.984346569
10.866667 0.004063115 -0.000056106 -0.009164220 -0.022153173 -0.115224943 -0.138893872 0.983331561
10.933333 0.003836880 -0.000054746 -0.009131631 -0.026868165 -0.110319234 -0.148407862 0.982386291
11.000000 0.003514641 0.000181077 -0.011640897 -0.031346694 -0.093200840 -0.165504351 0.981294692
11.066667 0.002636603 0.001398731 -0.011279261 -0.026981138 -0.071658887 -0.182359204 0.980245948
11.133333 0.002555544 0.001326603 -0.011178751 -0.023817293 -0.053968329 -0.201798335 0.977649033
11.200000 0.002495131 0.001218285 -0.011367744 -0.021285225 -0.038957302 -0.221843779 0.974071145
11.266667 0.002513779 0.001171316 -0.011047856 -0.019324670 -0.027901076 -0.238471270 0.970556319
11.333333 0.002377254 0.000894259 -0.011294712 -0.015523920 -0.017820306 -0.251470685 0.967576325
11.400000 0.002342074 0.000945852 -0.011301531 -0.014251297 -0.011068651 -0.259676009 0.965527236
11.466667 0.002250322 0.000956815 -0.010875409 -0.014129994 -0.007015826 -0.265582234 0.963959157
11.533333 0.002226863 0.000916071 -0.010848661 -0.013217582 -0.004789954 -0.272043407 0.962182283
11.600000 0.002260310 0.000889763 -0.010879802 -0.008288619 -0.000254308 -0.277730525 0.960623205
11.666667 0.002247775 0.000903833 -0.010894587 -0.006626146 0.000601603 -0.279877186 0.960012734
11.733333 0.002133282 0.000653621 -0.011262577 -0.010718553 -0.003184180 -0.270107806 0.962765157
11.800000 0.002133619 0.000886441 -0.010440165 -0.018168103 -0.014089279 -0.264938921 0.963991106
11.866667 0.002129342 0.000892965 -0.010459669 -0.020727862 -0.019673776 -0.259199739 0.965400875
11.933333 0.002170105 0.000870626 -0.010586205 -0.020298393 -0.022823326 -0.252063394 0.967228532
12.000000 0.002386624 0.000862987 -0.010962525 -0.022252280 -0.027343530 -0.245464832 0.968764246
12.066667 0.002375287 0.000909527 -0.010660217 -0.019057762 -0.030958449 -0.236923471 0.970847905
12.133333 0.002121384 0.000854417 -0.010269120 -0.009289240 -0.037386041 -0.220475718 0.974631429
12.200000 0.002222245 0.000836718 -0.010588950 0.000033728 -0.051171377 -0.181859925 0.981992066
12.266667 0.003490631 0.000644563 -0.011312010 0.004261327 -0.077788666 -0.132186711 0.988158584
12.333333 0.005219077 0.000400017 -0.013365913 0.006725098 -0.113760941 -0.083779693 0.989946544
12.400000 0.007076896 0.001066490 -0.016393755 0.008064991 -0.151448056 -0.035619274 0.987790346
12.466667 0.008572007 0.001818656 -0.019546753 0.015612819 -0.181600437 -0.000745986 0.983248174
12.533333 0.008593156 0.001570046 -0.019821778 0.011139207 -0.200643733 0.014593654 0.979492247
12.600000 0.008613711 0.001555455 -0.020046875 0.014284904 -0.215571448 0.018556159 0.976207256
12.666667 0.008848591 0.001486489 -0.020687591 0.014073770 -0.228299722 0.022717904 0.973224044
12.733333 0.008758758 0.001515262 -0.021276556 0.014380406 -0.235973850 0.025791813 0.971310616
12.800000 0.008819052 0.001499085 -0.021390213 0.013635668 -0.239952251 0.025179610 0.970362306
12.866667 0.008752822 0.001512820 -0.021272250 0.013846258 -0.243714914 0.024623675 0.969435394
12.933333 0.008810963 0.001510789 -0.021396425 0.014893251 -0.245977566 0.026375290 0.968802154
13.000000 0.008803084 0.001510690 -0.021402040 0.016657189 -0.247340053 0.027293030 0.968401015
13.066667 0.008821393 0.001545689 -0.021637840 0.013971580 -0.250509202 0.032259732 0.967475712
13.133333 0.008827358 0.001551083 -0.021640541 0.013483784 -0.253854066 0.033687934 0.966561675
13.200000 0.008912723 0.001546366 -0.021737272 0.014078631 -0.255673707 0.036807165 0.965959609
13.266667 0.008875591 0.001535858 -0.021714447 0.016008463 -0.257865429 0.037944704 0.965302706
13.333333 0.008991401 0.001509927 -0.021862764 0.017324556 -0.259303093 0.037534561 0.964910865
